// Jest Snapshot v1, https://goo.gl/fbAQLP

exports[`App test App should match snapshot 1`] = `
<div
  className="App"
>
  <header
    className="App-header"
  >
    <h1>
      Yahtzee
    </h1>
    <button
      className="button"
      onClick={[Function]}
    >
      Start Game
    </button>
  </header>
  <div
    className="App-content"
  >
    <div
      className="ScoreSheets"
    >
      <div
        className="ScoreSheet ScoreSheet--active-player ScoreSheet--not-in-progress"
      >
        <div
          className="ScoreSheetHeader"
        >
          <label
            htmlFor="name"
          >
            Name: 
          </label>
          <span
            className="player-name"
          >
            Player 1
          </span>
          <i
            className="fa fa-edit"
            onClick={[Function]}
          />
          <div
            className="player-total"
          >
            <label>
              Total: 
            </label>
            <span
              className="player-total"
            >
              0
            </span>
          </div>
        </div>
      </div>
      <div
        className="ScoreSheet false ScoreSheet--not-in-progress"
      >
        <div
          className="ScoreSheetHeader"
        >
          <label
            htmlFor="name"
          >
            Name: 
          </label>
          <span
            className="player-name"
          >
            Player 2
          </span>
          <i
            className="fa fa-edit"
            onClick={[Function]}
          />
          <div
            className="player-total"
          >
            <label>
              Total: 
            </label>
            <span
              className="player-total"
            >
              0
            </span>
          </div>
        </div>
      </div>
    </div>
  </div>
</div>
`;
